Log Details :
Loading xml document

-------------------------------------------------------------------------
Loading xml document successful

-------------------------------------------------------------------------
Getting Root element in xml document

-------------------------------------------------------------------------
Element found:Project_Offfer_Letter xml document

-------------------------------------------------------------------------
Element found:TechnicalDetails xml document

-------------------------------------------------------------------------
Element found:Heading xml document

-------------------------------------------------------------------------
Element found:Rows xml document

-------------------------------------------------------------------------
Element found:Rows xml document

-------------------------------------------------------------------------
Element found:Rows xml document

-------------------------------------------------------------------------
Element found:Rows xml document

-------------------------------------------------------------------------
Element found:Rows xml document

-------------------------------------------------------------------------
Element found:Rows xml document

-------------------------------------------------------------------------
Element found:Rows xml document

-------------------------------------------------------------------------
Element found:Rows xml document

-------------------------------------------------------------------------
Element found:Rows xml document

-------------------------------------------------------------------------
Element found:Rows xml document

-------------------------------------------------------------------------
Element found:Rows xml document

-------------------------------------------------------------------------
Element found:Heading xml document

-------------------------------------------------------------------------
Element found:Rows xml document

-------------------------------------------------------------------------
Element found:Rows xml document

-------------------------------------------------------------------------
Element found:Rows xml document

-------------------------------------------------------------------------
Element found:Rows xml document

-------------------------------------------------------------------------
Element found:Rows xml document

-------------------------------------------------------------------------
Element found:Rows xml document

-------------------------------------------------------------------------
Element found:Heading xml document

-------------------------------------------------------------------------
Element found:Rows xml document

-------------------------------------------------------------------------
Element found:Rows xml document

-------------------------------------------------------------------------
Element found:Rows xml document

-------------------------------------------------------------------------
Element found:Rows xml document

-------------------------------------------------------------------------
Element found:Heading xml document

-------------------------------------------------------------------------
Element found:Rows xml document

-------------------------------------------------------------------------
Element found:Rows xml document

-------------------------------------------------------------------------
Element found:Rows xml document

-------------------------------------------------------------------------
Element found:Rows xml document

-------------------------------------------------------------------------
Element found:Heading xml document

-------------------------------------------------------------------------
Element found:Rows xml document

-------------------------------------------------------------------------
Element found:Rows xml document

-------------------------------------------------------------------------
Element found:Rows xml document

-------------------------------------------------------------------------
Element found:Rows xml document

-------------------------------------------------------------------------
Element found:Heading xml document

-------------------------------------------------------------------------
Element found:Rows xml document

-------------------------------------------------------------------------
Element found:Rows xml document

-------------------------------------------------------------------------
Element found:Heading xml document

-------------------------------------------------------------------------
Element found:Rows xml document

-------------------------------------------------------------------------
Element found:ScopeDetails xml document

-------------------------------------------------------------------------
Element found:Switchgear xml document

-------------------------------------------------------------------------
Element found:Heading xml document

-------------------------------------------------------------------------
Element found:Rows xml document

-------------------------------------------------------------------------
Element found:Rows xml document

-------------------------------------------------------------------------
Element found:Rows xml document

-------------------------------------------------------------------------
Element found:Rows xml document

-------------------------------------------------------------------------
Element found:Rows xml document

-------------------------------------------------------------------------
Element found:Rows xml document

-------------------------------------------------------------------------
Element found:Rows xml document

-------------------------------------------------------------------------
Element found:Rows xml document

-------------------------------------------------------------------------
Element found:Rows xml document

-------------------------------------------------------------------------
Element found:Rows xml document

-------------------------------------------------------------------------
Element found:Rows xml document

-------------------------------------------------------------------------
Element found:Rows xml document

-------------------------------------------------------------------------
Element found:Rows xml document

-------------------------------------------------------------------------
Element found:Rows xml document

-------------------------------------------------------------------------
Element found:Rows xml document

-------------------------------------------------------------------------
Element found:Heading xml document

-------------------------------------------------------------------------
Element found:Rows xml document

-------------------------------------------------------------------------
Element found:Rows xml document

-------------------------------------------------------------------------
Element found:Rows xml document

-------------------------------------------------------------------------
Element found:Rows xml document

-------------------------------------------------------------------------
Element found:Heading xml document

-------------------------------------------------------------------------
Element found:Rows xml document

-------------------------------------------------------------------------
Element found:Rows xml document

-------------------------------------------------------------------------
Element found:Rows xml document

-------------------------------------------------------------------------
Element found:Rows xml document

-------------------------------------------------------------------------
Element found:Rows xml document

-------------------------------------------------------------------------
Element found:Heading xml document

-------------------------------------------------------------------------
Element found:Rows xml document

-------------------------------------------------------------------------
Element found:Rows xml document

-------------------------------------------------------------------------
Element found:Heading xml document

-------------------------------------------------------------------------
Element found:Rows xml document

-------------------------------------------------------------------------
Element found:Rows xml document

-------------------------------------------------------------------------
Element found:Rows xml document

-------------------------------------------------------------------------
Element found:Rows xml document

-------------------------------------------------------------------------
Element found:Rows xml document

-------------------------------------------------------------------------
Element found:Cubicle xml document

-------------------------------------------------------------------------
Element found:Cubicle xml document

-------------------------------------------------------------------------
Element found:Module xml document

-------------------------------------------------------------------------
Element found:Module xml document

-------------------------------------------------------------------------
Element found:Cubicle xml document

-------------------------------------------------------------------------
Element found:Module xml document

-------------------------------------------------------------------------
Element found:Switchgear xml document

-------------------------------------------------------------------------
Element found:Heading xml document

-------------------------------------------------------------------------
Element found:Rows xml document

-------------------------------------------------------------------------
Element found:Rows xml document

-------------------------------------------------------------------------
Element found:Rows xml document

-------------------------------------------------------------------------
Element found:Rows xml document

-------------------------------------------------------------------------
Element found:Rows xml document

-------------------------------------------------------------------------
Element found:Rows xml document

-------------------------------------------------------------------------
Element found:Rows xml document

-------------------------------------------------------------------------
Element found:Rows xml document

-------------------------------------------------------------------------
Element found:Rows xml document

-------------------------------------------------------------------------
Element found:Rows xml document

-------------------------------------------------------------------------
Element found:Rows xml document

-------------------------------------------------------------------------
Element found:Rows xml document

-------------------------------------------------------------------------
Element found:Rows xml document

-------------------------------------------------------------------------
Element found:Rows xml document

-------------------------------------------------------------------------
Element found:Rows xml document

-------------------------------------------------------------------------
Element found:Heading xml document

-------------------------------------------------------------------------
Element found:Rows xml document

-------------------------------------------------------------------------
Element found:Rows xml document

-------------------------------------------------------------------------
Element found:Rows xml document

-------------------------------------------------------------------------
Element found:Rows xml document

-------------------------------------------------------------------------
Element found:Heading xml document

-------------------------------------------------------------------------
Element found:Rows xml document

-------------------------------------------------------------------------
Element found:Rows xml document

-------------------------------------------------------------------------
Element found:Rows xml document

-------------------------------------------------------------------------
Element found:Rows xml document

-------------------------------------------------------------------------
Element found:Rows xml document

-------------------------------------------------------------------------
Element found:Heading xml document

-------------------------------------------------------------------------
Element found:Rows xml document

-------------------------------------------------------------------------
Element found:Rows xml document

-------------------------------------------------------------------------
Element found:Heading xml document

-------------------------------------------------------------------------
Element found:Rows xml document

-------------------------------------------------------------------------
Element found:Rows xml document

-------------------------------------------------------------------------
Element found:Rows xml document

-------------------------------------------------------------------------
Element found:Rows xml document

-------------------------------------------------------------------------
Element found:Rows xml document

-------------------------------------------------------------------------
Element found:Cubicle xml document

-------------------------------------------------------------------------
Element found:Module xml document

-------------------------------------------------------------------------
Element found:Cubicle xml document

-------------------------------------------------------------------------
Element found:Cubicle xml document

-------------------------------------------------------------------------
Element found:Module xml document

-------------------------------------------------------------------------
Element found:Cubicle xml document

-------------------------------------------------------------------------
Element found:Module xml document

-------------------------------------------------------------------------
Element found:Module xml document

-------------------------------------------------------------------------
Element found:EquipmentDetails xml document

-------------------------------------------------------------------------
Element found:Equipment xml document

-------------------------------------------------------------------------
Element found:Part xml document

-------------------------------------------------------------------------
Element found:Part xml document

-------------------------------------------------------------------------
Element found:Part xml document

-------------------------------------------------------------------------
Element found:Part xml document

-------------------------------------------------------------------------
Element found:Equipment xml document

-------------------------------------------------------------------------
Element found:Part xml document

-------------------------------------------------------------------------
Element found:Part xml document

-------------------------------------------------------------------------
Element found:Part xml document

-------------------------------------------------------------------------
Element found:Equipment xml document

-------------------------------------------------------------------------
Element found:Part xml document

-------------------------------------------------------------------------
Element found:Equipment xml document

-------------------------------------------------------------------------
Element found:Part xml document

-------------------------------------------------------------------------
Element found:Part xml document

-------------------------------------------------------------------------
Element found:Equipment xml document

-------------------------------------------------------------------------
Element found:Part xml document

-------------------------------------------------------------------------
Element found:Part xml document

-------------------------------------------------------------------------
Element found:Equipment xml document

-------------------------------------------------------------------------
Element found:Part xml document

-------------------------------------------------------------------------
Element found:Part xml document

-------------------------------------------------------------------------
Element found:Equipment xml document

-------------------------------------------------------------------------
Element found:Part xml document

-------------------------------------------------------------------------
Element found:EquipmentDetails1 xml document

-------------------------------------------------------------------------
Element found:Equipment1 xml document

-------------------------------------------------------------------------
Element found:Part xml document

-------------------------------------------------------------------------
Element found:Part xml document

-------------------------------------------------------------------------
Element found:Part xml document

-------------------------------------------------------------------------
Element found:Part xml document

-------------------------------------------------------------------------
Element found:Equipment1 xml document

-------------------------------------------------------------------------
Element found:Part xml document

-------------------------------------------------------------------------
Element found:Part xml document

-------------------------------------------------------------------------
Element found:Part xml document

-------------------------------------------------------------------------
Element found:Equipment1 xml document

-------------------------------------------------------------------------
Element found:Part xml document

-------------------------------------------------------------------------
Element found:Equipment1 xml document

-------------------------------------------------------------------------
Element found:Part xml document

-------------------------------------------------------------------------
Element found:Part xml document

-------------------------------------------------------------------------
Element found:Equipment1 xml document

-------------------------------------------------------------------------
Element found:Part xml document

-------------------------------------------------------------------------
Element found:Part xml document

-------------------------------------------------------------------------
Element found:Equipment1 xml document

-------------------------------------------------------------------------
Element found:Part xml document

-------------------------------------------------------------------------
Element found:Part xml document

-------------------------------------------------------------------------
Element found:Equipment1 xml document

-------------------------------------------------------------------------
Element found:Part xml document

-------------------------------------------------------------------------
Element found:SummaryTable xml document

-------------------------------------------------------------------------
Element found:NRDOL xml document

-------------------------------------------------------------------------
Element found:Set_1 xml document

-------------------------------------------------------------------------
Element found:Type2Coordination xml document

-------------------------------------------------------------------------
Element found:Typical xml document

-------------------------------------------------------------------------
Element found:Typical xml document

-------------------------------------------------------------------------
Element found:Accessories xml document

-------------------------------------------------------------------------
Element found:Accessory xml document

-------------------------------------------------------------------------
Element found:Accessory xml document

-------------------------------------------------------------------------
Element found:Accessory xml document

-------------------------------------------------------------------------
Element found:Accessory xml document

-------------------------------------------------------------------------
Element found:Accessory xml document

-------------------------------------------------------------------------
Element found:Accessory xml document

-------------------------------------------------------------------------
Element found:Accessory xml document

-------------------------------------------------------------------------
Element found:Accessory xml document

-------------------------------------------------------------------------
Element found:Set_2 xml document

-------------------------------------------------------------------------
Element found:Type2Coordination xml document

-------------------------------------------------------------------------
Element found:Typical xml document

-------------------------------------------------------------------------
Element found:Typical xml document

-------------------------------------------------------------------------
Element found:Typical xml document

-------------------------------------------------------------------------
Element found:Accessories xml document

-------------------------------------------------------------------------
Element found:Accessory xml document

-------------------------------------------------------------------------
Element found:Accessory xml document

-------------------------------------------------------------------------
Element found:Accessory xml document

-------------------------------------------------------------------------
Element found:Accessory xml document

-------------------------------------------------------------------------
Element found:Accessory xml document

-------------------------------------------------------------------------
Element found:RDOL xml document

-------------------------------------------------------------------------
Element found:Set_1 xml document

-------------------------------------------------------------------------
Element found:Accessories xml document

-------------------------------------------------------------------------
Element found:Accessory xml document

-------------------------------------------------------------------------
Element found:Accessory xml document

-------------------------------------------------------------------------
Element found:Accessory xml document

-------------------------------------------------------------------------
Element found:Accessory xml document

-------------------------------------------------------------------------
Element found:Accessory xml document

-------------------------------------------------------------------------
Element found:Accessory xml document

-------------------------------------------------------------------------
Element found:Accessory xml document

-------------------------------------------------------------------------
Element found:Accessory xml document

-------------------------------------------------------------------------
Element found:Set_2 xml document

-------------------------------------------------------------------------
Element found:Type2Coordination xml document

-------------------------------------------------------------------------
Element found:Typical xml document

-------------------------------------------------------------------------
Element found:Typical xml document

-------------------------------------------------------------------------
Element found:Accessories xml document

-------------------------------------------------------------------------
Element found:Accessory xml document

-------------------------------------------------------------------------
Element found:Accessory xml document

-------------------------------------------------------------------------
Element found:Accessory xml document

-------------------------------------------------------------------------
Element found:Accessory xml document

-------------------------------------------------------------------------
Element found:Accessory xml document

-------------------------------------------------------------------------
BookMark:Test

-------------------------------------------------------------------------
Word Document Loaded Successfully

-------------------------------------------------------------------------
BookMark:SCOPE

-------------------------------------------------------------------------
Word Document Loaded Successfully

-------------------------------------------------------------------------
BookMark:EQUIPMENT

-------------------------------------------------------------------------
Word Document Loaded Successfully

-------------------------------------------------------------------------
BookMark:EQUIPMENT1

-------------------------------------------------------------------------
Word Document Loaded Successfully

-------------------------------------------------------------------------
BookMark:SummaryTable

-------------------------------------------------------------------------
Word Document Loaded Successfully

-------------------------------------------------------------------------
The requested member of the collection does not exist.

-------------------------------------------------------------------------
This method or property is not available because a document window is not active.

-------------------------------------------------------------------------
