Log Details :
file:\C:\Users\DELLUSER\Desktop\Arun\OneDrive_1_4-19-2020\01- Source Code\WordManager on 10.140.191.137\WordTest\bin\Debug\Input\Project_Offer_Letter.xml

-------------------------------------------------------------------------
Loading xml document

-------------------------------------------------------------------------
Loading xml document successful

-------------------------------------------------------------------------
Getting Root element in xml document

-------------------------------------------------------------------------
Element found:Project_Offfer_Letter xml document

-------------------------------------------------------------------------
Element found:TechnicalDetails xml document

-------------------------------------------------------------------------
Element found:Heading xml document

-------------------------------------------------------------------------
Element found:Rows xml document

-------------------------------------------------------------------------
Element found:Rows xml document

-------------------------------------------------------------------------
Element found:Rows xml document

-------------------------------------------------------------------------
Element found:Rows xml document

-------------------------------------------------------------------------
Element found:Rows xml document

-------------------------------------------------------------------------
Element found:Rows xml document

-------------------------------------------------------------------------
Element found:Rows xml document

-------------------------------------------------------------------------
Element found:Rows xml document

-------------------------------------------------------------------------
Element found:Rows xml document

-------------------------------------------------------------------------
Element found:Rows xml document

-------------------------------------------------------------------------
Element found:Rows xml document

-------------------------------------------------------------------------
Element found:Heading xml document

-------------------------------------------------------------------------
Element found:Rows xml document

-------------------------------------------------------------------------
Element found:Rows xml document

-------------------------------------------------------------------------
Element found:Rows xml document

-------------------------------------------------------------------------
Element found:Rows xml document

-------------------------------------------------------------------------
Element found:Rows xml document

-------------------------------------------------------------------------
Element found:Rows xml document

-------------------------------------------------------------------------
Element found:Heading xml document

-------------------------------------------------------------------------
Element found:Rows xml document

-------------------------------------------------------------------------
Element found:Rows xml document

-------------------------------------------------------------------------
Element found:Rows xml document

-------------------------------------------------------------------------
Element found:Rows xml document

-------------------------------------------------------------------------
Element found:Heading xml document

-------------------------------------------------------------------------
Element found:Rows xml document

-------------------------------------------------------------------------
Element found:Rows xml document

-------------------------------------------------------------------------
Element found:Rows xml document

-------------------------------------------------------------------------
Element found:Rows xml document

-------------------------------------------------------------------------
Element found:Heading xml document

-------------------------------------------------------------------------
Element found:Rows xml document

-------------------------------------------------------------------------
Element found:Rows xml document

-------------------------------------------------------------------------
Element found:Rows xml document

-------------------------------------------------------------------------
Element found:Rows xml document

-------------------------------------------------------------------------
Element found:Heading xml document

-------------------------------------------------------------------------
Element found:Rows xml document

-------------------------------------------------------------------------
Element found:Rows xml document

-------------------------------------------------------------------------
Element found:Heading xml document

-------------------------------------------------------------------------
Element found:Rows xml document

-------------------------------------------------------------------------
Element found:ScopeDetails xml document

-------------------------------------------------------------------------
Element found:Switchgear xml document

-------------------------------------------------------------------------
Element found:Heading xml document

-------------------------------------------------------------------------
Element found:Rows xml document

-------------------------------------------------------------------------
Element found:Rows xml document

-------------------------------------------------------------------------
Element found:Rows xml document

-------------------------------------------------------------------------
Element found:Rows xml document

-------------------------------------------------------------------------
Element found:Rows xml document

-------------------------------------------------------------------------
Element found:Rows xml document

-------------------------------------------------------------------------
Element found:Rows xml document

-------------------------------------------------------------------------
Element found:Rows xml document

-------------------------------------------------------------------------
Element found:Rows xml document

-------------------------------------------------------------------------
Element found:Rows xml document

-------------------------------------------------------------------------
Element found:Rows xml document

-------------------------------------------------------------------------
Element found:Rows xml document

-------------------------------------------------------------------------
Element found:Rows xml document

-------------------------------------------------------------------------
Element found:Rows xml document

-------------------------------------------------------------------------
Element found:Rows xml document

-------------------------------------------------------------------------
Element found:Heading xml document

-------------------------------------------------------------------------
Element found:Rows xml document

-------------------------------------------------------------------------
Element found:Rows xml document

-------------------------------------------------------------------------
Element found:Rows xml document

-------------------------------------------------------------------------
Element found:Rows xml document

-------------------------------------------------------------------------
Element found:Heading xml document

-------------------------------------------------------------------------
Element found:Rows xml document

-------------------------------------------------------------------------
Element found:Rows xml document

-------------------------------------------------------------------------
Element found:Rows xml document

-------------------------------------------------------------------------
Element found:Rows xml document

-------------------------------------------------------------------------
Element found:Rows xml document

-------------------------------------------------------------------------
Element found:Heading xml document

-------------------------------------------------------------------------
Element found:Rows xml document

-------------------------------------------------------------------------
Element found:Rows xml document

-------------------------------------------------------------------------
Element found:Heading xml document

-------------------------------------------------------------------------
Element found:Rows xml document

-------------------------------------------------------------------------
Element found:Rows xml document

-------------------------------------------------------------------------
Element found:Rows xml document

-------------------------------------------------------------------------
Element found:Rows xml document

-------------------------------------------------------------------------
Element found:Rows xml document

-------------------------------------------------------------------------
Element found:Cubicle xml document

-------------------------------------------------------------------------
Element found:Cubicle xml document

-------------------------------------------------------------------------
Element found:Module xml document

-------------------------------------------------------------------------
Element found:Module xml document

-------------------------------------------------------------------------
Element found:Cubicle xml document

-------------------------------------------------------------------------
Element found:Module xml document

-------------------------------------------------------------------------
Element found:Switchgear xml document

-------------------------------------------------------------------------
Element found:Heading xml document

-------------------------------------------------------------------------
Element found:Rows xml document

-------------------------------------------------------------------------
Element found:Rows xml document

-------------------------------------------------------------------------
Element found:Rows xml document

-------------------------------------------------------------------------
Element found:Rows xml document

-------------------------------------------------------------------------
Element found:Rows xml document

-------------------------------------------------------------------------
Element found:Rows xml document

-------------------------------------------------------------------------
Element found:Rows xml document

-------------------------------------------------------------------------
Element found:Rows xml document

-------------------------------------------------------------------------
Element found:Rows xml document

-------------------------------------------------------------------------
Element found:Rows xml document

-------------------------------------------------------------------------
Element found:Rows xml document

-------------------------------------------------------------------------
Element found:Rows xml document

-------------------------------------------------------------------------
Element found:Rows xml document

-------------------------------------------------------------------------
Element found:Rows xml document

-------------------------------------------------------------------------
Element found:Rows xml document

-------------------------------------------------------------------------
Element found:Heading xml document

-------------------------------------------------------------------------
Element found:Rows xml document

-------------------------------------------------------------------------
Element found:Rows xml document

-------------------------------------------------------------------------
Element found:Rows xml document

-------------------------------------------------------------------------
Element found:Rows xml document

-------------------------------------------------------------------------
Element found:Heading xml document

-------------------------------------------------------------------------
Element found:Rows xml document

-------------------------------------------------------------------------
Element found:Rows xml document

-------------------------------------------------------------------------
Element found:Rows xml document

-------------------------------------------------------------------------
Element found:Rows xml document

-------------------------------------------------------------------------
Element found:Rows xml document

-------------------------------------------------------------------------
Element found:Heading xml document

-------------------------------------------------------------------------
Element found:Rows xml document

-------------------------------------------------------------------------
Element found:Rows xml document

-------------------------------------------------------------------------
Element found:Heading xml document

-------------------------------------------------------------------------
Element found:Rows xml document

-------------------------------------------------------------------------
Element found:Rows xml document

-------------------------------------------------------------------------
Element found:Rows xml document

-------------------------------------------------------------------------
Element found:Rows xml document

-------------------------------------------------------------------------
Element found:Rows xml document

-------------------------------------------------------------------------
Element found:Cubicle xml document

-------------------------------------------------------------------------
Element found:Module xml document

-------------------------------------------------------------------------
Element found:Cubicle xml document

-------------------------------------------------------------------------
Element found:Cubicle xml document

-------------------------------------------------------------------------
Element found:Module xml document

-------------------------------------------------------------------------
Element found:Cubicle xml document

-------------------------------------------------------------------------
Element found:Module xml document

-------------------------------------------------------------------------
Element found:Module xml document

-------------------------------------------------------------------------
Element found:EquipmentDetails xml document

-------------------------------------------------------------------------
Element found:Equipment xml document

-------------------------------------------------------------------------
Element found:Part xml document

-------------------------------------------------------------------------
Element found:Part xml document

-------------------------------------------------------------------------
Element found:Part xml document

-------------------------------------------------------------------------
Element found:Part xml document

-------------------------------------------------------------------------
Element found:Equipment xml document

-------------------------------------------------------------------------
Element found:Part xml document

-------------------------------------------------------------------------
Element found:Part xml document

-------------------------------------------------------------------------
Element found:Part xml document

-------------------------------------------------------------------------
Element found:Equipment xml document

-------------------------------------------------------------------------
Element found:Part xml document

-------------------------------------------------------------------------
Element found:Equipment xml document

-------------------------------------------------------------------------
Element found:Part xml document

-------------------------------------------------------------------------
Element found:Part xml document

-------------------------------------------------------------------------
Element found:Equipment xml document

-------------------------------------------------------------------------
Element found:Part xml document

-------------------------------------------------------------------------
Element found:Part xml document

-------------------------------------------------------------------------
Element found:Equipment xml document

-------------------------------------------------------------------------
Element found:Part xml document

-------------------------------------------------------------------------
Element found:Part xml document

-------------------------------------------------------------------------
Element found:Equipment xml document

-------------------------------------------------------------------------
Element found:Part xml document

-------------------------------------------------------------------------
BookMark:Test

-------------------------------------------------------------------------
Word Document Loaded Successfully

-------------------------------------------------------------------------
Value out of range

-------------------------------------------------------------------------
BookMark:SCOPE

-------------------------------------------------------------------------
Word Document Loaded Successfully

-------------------------------------------------------------------------
BookMark:EQUIPMENT

-------------------------------------------------------------------------
Word Document Loaded Successfully

-------------------------------------------------------------------------
The source was not found, but some or all event logs could not be searched.  To create the source, you need permission to read all event logs to make sure that the new source name is unique.  Inaccessible logs: Security.

-------------------------------------------------------------------------
